{
"autoplayBgm":false,"autoplayBgs":false,"battleback1Name":"Road1","battleback2Name":"Town1","bgm":{"name":"","pan":0,"pitch":100,"volume":90},"bgs":{"name":"","pan":0,"pitch":100,"volume":90},"disableDashing":false,"displayName":"","encounterList":[],"encounterStep":30,"height":40,"note":"","parallaxLoopX":false,"parallaxLoopY":false,"parallaxName":"","parallaxShow":true,"parallaxSx":0,"parallaxSy":0,"scrollType":0,"specifyBattleback":true,"tilesetId":2,"width":40,
"data":[6852,6876,6876,6876,6876,6876,6876,6876,6876,6876,6876,6876,6876,6876,6876,6876,6876,6876,6876,6876,6876,6876,6876,6876,6876,6876,6876,6876,6876,6876,6876,6876,6876,6876,6876,6876,6876,6876,6876,6856,6872,7235,7234,7234,7234,7234,7234,7234,7234,7234,7234,7234,7234,7234,7234,7234,7234,7234,7234,7234,7234,7234,7234,7234,7234,7234,7234,7234,7234,7234,7234,7234,7234,7234,7234,7234,7234,7234,7238,6864,6872,7241,7240,7240,7240,7240,7240,7240,7240,7240,7240,7240,7240,7240,7240,7240,7240,7240,7240,7240,7240,7240,7240,7240,7240,7240,7240,7240,7240,7240,7240,7240,7240,7240,7240,7240,7240,7240,7244,6864,6872,2082,2068,2069,2093,2851,2849,2849,2849,2849,2849,2849,2838,2836,2836,2836,2836,2836,2836,2836,2836,2836,2836,2836,2836,2836,2836,2836,2836,2836,2836,2836,2852,2082,2068,2068,2068,2068,2084,6864,6872,2088,2076,2086,2850,2842,4403,4402,4402,4402,4402,4406,2832,2816,2816,2816,2816,2820,2844,2844,2844,2824,2816,2816,2816,2816,2816,2816,2816,2816,2816,2816,2840,2064,2048,2048,2048,2048,2072,6864,6872,2859,2849,2849,2845,2841,4409,4408,4408,4408,4408,4412,2832,2816,2820,2844,2844,2854,4835,4834,4838,2856,2844,2844,2824,2816,2820,2844,2844,2844,2844,2844,2841,2064,2048,2048,2048,2048,2072,6864,6872,4547,4546,4546,4550,2848,4787,4786,4786,4786,4786,4790,2832,2816,2840,4835,4834,4838,4841,4840,4844,4835,4834,4838,2832,2816,2840,4883,4882,4882,4882,4886,2848,2088,2056,2048,2048,2048,2072,6864,6872,4553,4552,4552,4556,2848,4793,4792,4792,4792,4792,4796,2856,2844,2854,4841,4840,4844,2859,2849,2861,4841,4840,4844,2856,2844,2854,4889,4888,4888,4888,4892,2833,2852,2088,2076,2076,2056,2072,6864,6872,4931,4930,4930,4934,2848,2946,2932,2932,2932,2932,2932,2932,2932,2932,2932,2932,2932,2932,2932,2932,2932,2932,2932,2932,2932,2932,2932,2932,2932,2932,2948,2832,2818,2836,2836,2852,2088,2086,6864,6872,4937,4936,4936,4940,2848,2928,2912,2912,2912,2912,2912,2912,2912,2912,2912,2912,2912,2912,2912,2912,2912,2912,2912,2912,2912,2912,2912,2912,2912,2912,2936,2832,2816,2816,2816,2818,2836,2852,6864,6872,2850,2836,2836,2836,2842,2952,2940,2940,2940,2940,2940,2940,2940,2940,2940,2940,2940,2920,2912,2916,2940,2940,2940,2940,2940,2940,2940,2940,2940,2940,2950,2832,2816,2816,2816,2816,2816,2840,6864,6872,2832,2816,2816,2816,2818,2836,2836,2836,2836,2836,2836,2836,2836,2836,2836,2836,2852,2928,2912,2936,2850,2836,2852,2082,2068,2068,2068,2084,2850,2837,2849,2845,2844,2844,2844,2844,2844,2854,6864,6872,2832,2816,2816,2816,2816,2816,2816,2816,2816,2816,2816,2816,2816,2816,2816,2816,2840,2928,2912,2936,2832,2816,2840,2064,2052,2076,2056,2072,2832,2840,1624,1625,1625,1625,1625,1625,1625,1626,6864,6872,2832,2816,2816,2816,2816,2820,2844,2844,2844,2844,2844,2824,2816,2816,2816,2816,2840,2928,2912,2936,2832,2816,2840,2088,2086,2858,2088,2086,2832,2840,1632,5075,5074,5078,2859,2849,2861,1634,6864,6872,2832,2816,2816,2816,2816,2840,4835,4834,4834,4834,4838,2832,2816,2816,2816,2816,2840,2928,2912,2936,2832,2816,2818,2836,2836,2819,2836,2836,2817,2840,1632,5081,5080,5084,5075,5074,5078,1634,6864,6872,2832,2816,2816,2816,2816,2840,4841,4840,4840,4840,4844,2832,2816,2816,2816,2816,2840,2928,2912,2936,2832,2816,2820,2844,2844,2844,2844,2844,2824,2840,1632,2859,2849,2861,5081,5080,5084,1634,6864,6872,2832,2816,2816,2816,2820,2846,2849,2849,2849,2849,2849,2845,2824,2816,2816,2816,2840,2928,2912,2936,2832,2816,2840,4451,4450,4450,4450,4454,2832,2840,1640,1641,1641,1643,2850,2836,2852,1634,6864,6872,2832,2816,2816,2816,2840,4835,4834,4834,4834,4834,4834,4838,2832,2816,2816,2820,2854,2928,2912,2936,2856,2824,2840,4449,4448,4448,4448,4452,2832,2840,1648,1649,1649,1640,2856,2844,2854,1642,6864,6872,2832,2816,2816,2816,2840,4841,4840,4840,4840,4840,4840,4844,2832,2816,2820,2854,2946,2913,2912,2914,2948,2856,2841,4457,4456,4456,4456,4460,2832,2840,1656,1657,1657,1648,1560,1561,1562,1650,6864,6872,2832,2816,2816,2816,2818,2836,2836,2836,2836,2836,2836,2836,2817,2820,2854,2946,2913,2912,2912,2912,2914,2948,2860,4931,4930,4930,4930,4934,2832,2840,1627,1627,1627,1656,1560,1561,1562,1658,6864,6872,2832,2816,2816,2816,2820,2844,2844,2844,2844,2844,2844,2844,2844,2854,2946,2913,2912,2916,2940,2920,2912,2914,2948,4937,4936,4936,4936,4940,2856,2846,2849,2838,2836,2836,2836,2836,2836,2852,6864,6872,2832,2816,2816,2816,2840,2946,2932,2932,2932,2932,2932,2932,2932,2932,2913,2912,2912,2936,5934,2928,2912,2912,2914,2932,2932,2932,2932,2932,2932,2932,2948,2832,2816,2816,2816,2816,2816,2840,6864,6872,2832,2816,2816,2816,2840,2928,2912,2912,2912,2912,2912,2912,2912,2912,2912,2912,2912,2936,5711,2928,2912,2912,2912,2912,2912,2912,2912,2912,2912,2912,2936,2832,2816,2816,2816,2816,2816,2840,6864,6872,2832,2816,2816,2816,2840,2952,2940,2940,2940,2940,2940,2940,2940,2940,2920,2912,2912,2914,2932,2913,2912,2912,2916,2940,2940,2940,2940,2940,2940,2940,2950,2832,2816,2816,2816,2816,2816,2840,6864,6872,2832,2816,2816,2816,2818,2836,2836,2836,2836,2836,2836,2836,2836,2852,2952,2920,2912,2912,2912,2912,2912,2916,2950,2850,2836,2836,2836,2836,2836,2837,2849,2845,2844,2824,2816,2816,2816,2840,6864,6872,2832,2816,2816,2816,2816,2816,2816,2816,2816,2816,2816,2816,2816,2818,2852,2952,2920,2912,2912,2912,2916,2950,2850,2817,2816,2816,2816,2816,2816,2840,4787,4786,4790,2832,2816,2816,2816,2840,6864,6872,2832,2816,2816,2816,2816,2816,2816,2816,2816,2816,2816,2816,2816,2816,2818,2852,2952,2920,2912,2916,2950,2850,2817,2816,2816,2816,2816,2816,2816,2840,4793,4792,4796,2832,2816,2816,2816,2840,6864,6872,2832,2816,2816,2816,2816,2816,2820,2844,2844,2844,2844,2844,2824,2816,2816,2818,2852,2928,2912,2936,2851,2845,2844,2844,2824,2816,2816,2816,2820,2846,2849,2849,2838,2817,2816,2816,2816,2840,6864,6872,2832,2816,2816,2816,2816,2816,2840,4787,4786,4786,4786,4790,2832,2816,2816,2816,2840,2928,2912,2936,2848,4547,4546,4550,2832,2816,2816,2816,2840,4787,4786,4790,2832,2816,2816,2816,2816,2840,6864,6872,2832,2816,2816,2820,2844,2844,2854,4793,4792,4792,4792,4796,2856,2844,2844,2824,2840,2928,2912,2936,2848,4553,4552,4556,2834,2844,2844,2844,2841,4793,4792,4796,2834,2844,2844,2844,2824,2840,6864,6872,2832,2816,2816,2840,4787,4786,4790,2858,2946,2932,2948,2858,4787,4786,4790,2832,2840,2928,2912,2936,2848,4931,4930,4934,2848,4739,4738,4742,2833,2836,2836,2836,2842,4787,4786,4790,2832,2840,6864,6872,2832,2816,2816,2840,4793,4792,4796,2860,2928,2912,2936,2860,4793,4792,4796,2856,2854,2928,2912,2936,2860,4937,4936,4940,2860,4745,4744,4748,2856,2844,2844,2824,2840,4793,4792,4796,2832,2840,6864,6872,2832,2816,2816,2818,2852,2946,2932,2932,2913,2912,2914,2932,2932,2932,2932,2932,2932,2913,2912,2914,2932,2932,2932,2932,2932,2932,2932,2932,2932,2932,2948,2834,2846,2849,2849,2849,2845,2841,6864,6872,2832,2816,2816,2816,2840,2928,2912,2912,2912,2912,2912,2912,2912,2912,2912,2912,2912,2912,2912,2912,2912,2912,2912,2912,2912,2912,2912,2912,2912,2912,2936,2848,4787,4786,4786,4786,4790,2848,6864,6872,2856,2844,2844,2844,2854,2952,2940,2940,2940,2940,2940,2940,2940,2940,2940,2940,2940,2920,2912,2916,2940,2940,2940,2940,2940,2940,2940,2940,2940,2940,2950,2860,4793,4792,4792,4792,4796,2860,6864,6872,2658,2644,2644,2644,2644,2644,2644,2644,2644,2644,2644,2644,2644,2644,2645,2657,2661,2928,2912,2936,2659,2657,2646,2644,2644,2644,2644,2644,2644,2644,2644,2644,2644,2644,2644,2644,2644,2660,6864,6872,2640,2624,2624,2624,2624,2624,2624,2624,2624,2624,2624,2624,2624,2624,2648,5934,2656,2928,2912,2936,2656,5934,2640,2624,2624,2624,2624,2624,2624,2624,2624,2624,2624,2624,2624,2624,2624,2648,6864,6872,2664,2652,2652,2652,2652,2652,2652,2652,2652,2652,2652,2652,2652,2652,2654,2657,2663,2928,2912,2936,2665,2657,2653,2652,2652,2652,2652,2652,2652,2652,2652,2652,2652,2652,2652,2652,2652,2662,6864,6850,6868,6868,6868,6868,6868,6868,6868,6868,6868,6868,6868,6868,6868,6868,6868,6868,6884,2928,2912,2936,6882,6868,6868,6868,6868,6868,6868,6868,6868,6868,6868,6868,6868,6868,6868,6868,6868,6868,6849,6848,6848,6848,6848,6848,6848,6848,6848,6848,6848,6848,6848,6848,6848,6848,6848,6848,6872,2928,2912,2936,6864,6848,6848,6848,6848,6848,6848,6848,6848,6848,6848,6848,6848,6848,6848,6848,6848,6848,6848,0,0,0,0,0,0,0,0,0,0,0,0,0,0,0,0,0,0,0,0,0,0,0,0,0,0,0,0,0,0,0,0,0,0,0,0,0,0,0,0,0,0,0,0,0,0,0,0,0,0,0,0,0,0,0,0,0,0,0,0,0,0,0,0,0,0,0,0,0,0,0,0,0,0,0,0,0,0,0,0,0,0,0,0,0,0,0,0,0,0,0,0,0,0,0,0,0,0,0,0,0,0,0,0,0,0,0,0,0,0,0,0,0,0,0,0,0,0,0,0,0,0,0,0,0,0,0,0,0,0,0,0,0,0,0,0,0,0,0,0,0,0,0,0,0,0,0,0,0,0,0,0,0,0,0,0,0,0,0,0,0,0,0,0,0,0,0,0,0,0,0,0,0,0,0,0,0,0,0,0,0,0,0,0,0,0,0,0,0,0,0,0,0,0,0,0,0,0,0,0,0,0,0,0,0,0,0,0,0,0,0,0,0,0,0,0,0,0,0,0,0,0,0,0,0,0,0,0,0,0,0,0,0,0,0,0,0,0,0,0,0,0,0,0,0,0,0,0,0,0,0,0,0,0,0,0,0,0,0,0,0,0,0,0,0,0,0,0,0,0,0,0,0,0,0,0,0,0,0,0,0,0,0,0,0,0,0,0,0,0,0,0,0,0,0,0,0,0,0,0,0,0,0,0,0,0,0,0,0,0,0,0,0,0,0,0,0,0,0,0,0,0,0,0,0,0,0,0,0,0,0,0,0,0,0,0,0,0,0,0,0,0,0,0,0,0,0,0,0,0,0,0,0,0,0,0,0,0,0,0,0,0,0,0,0,0,0,0,0,0,0,0,0,0,0,0,0,0,0,0,0,0,0,0,0,0,0,0,0,0,0,0,0,0,0,0,0,0,0,0,0,0,0,0,0,0,0,0,0,0,0,0,0,0,0,0,0,0,0,0,0,0,0,0,0,0,0,0,0,0,0,0,0,0,0,0,0,0,0,0,0,0,3042,3028,3044,0,0,0,0,0,0,0,0,0,0,0,0,0,0,0,0,0,0,0,0,0,0,0,0,0,0,0,0,0,0,0,0,0,0,0,0,3042,3009,3012,3046,0,0,0,0,0,0,0,0,0,0,0,0,0,0,0,0,0,0,0,0,0,0,0,0,0,0,0,0,0,0,0,0,0,0,0,0,3024,3008,3032,0,0,0,0,0,0,0,0,0,0,0,0,0,0,0,0,0,0,0,0,0,0,0,0,0,0,0,0,0,0,0,0,0,0,0,0,0,3024,3008,3032,3523,3521,3533,0,0,0,0,0,3531,3521,3525,0,0,0,0,0,0,0,0,0,0,0,0,0,0,0,0,0,0,0,0,0,0,0,0,0,0,3024,3008,3032,3520,0,0,0,0,0,0,0,0,0,3520,0,0,0,0,0,0,0,0,0,0,0,0,0,0,0,0,0,0,0,0,0,0,0,0,0,0,3024,3008,3032,3520,0,0,0,0,0,0,0,0,0,3520,0,0,0,0,0,0,0,0,0,0,0,0,0,0,0,0,0,0,0,0,0,0,0,0,0,0,3024,3012,3046,3520,0,0,0,0,0,0,0,0,0,3520,0,0,0,0,0,0,0,0,0,0,0,0,0,0,0,0,0,0,0,0,0,0,0,0,0,0,3048,3033,0,3520,0,0,0,0,0,0,0,0,0,3520,0,0,0,0,0,0,0,0,0,0,0,0,0,0,0,0,0,0,0,0,0,0,0,0,0,0,0,3052,0,3520,0,0,0,0,0,0,0,0,0,3520,0,0,0,0,0,0,0,0,0,0,0,0,0,0,0,0,0,0,0,0,0,0,0,0,0,0,0,0,0,3529,3521,3521,3521,3533,0,3531,3521,3521,3521,3527,0,0,0,0,0,0,0,0,0,0,0,0,0,0,0,0,0,0,0,0,0,0,0,0,0,0,0,0,0,0,0,0,0,0,0,0,0,0,0,0,0,0,0,0,0,0,0,0,0,0,0,0,0,0,0,0,0,0,0,0,0,0,0,0,0,0,0,0,0,0,0,0,0,0,0,0,0,0,0,0,0,0,0,0,0,0,0,0,0,0,0,0,0,0,0,0,0,0,0,0,0,0,0,0,0,0,0,0,0,0,0,0,0,0,0,0,0,0,0,0,0,0,0,0,0,0,0,0,0,0,0,0,0,0,0,0,0,0,0,0,0,0,0,0,0,0,0,0,0,0,0,0,0,0,0,0,0,0,0,0,0,0,0,0,0,0,0,0,0,0,0,0,0,0,0,0,0,0,0,0,0,0,0,0,0,0,0,0,0,0,0,0,0,0,0,0,0,0,0,0,0,0,0,0,0,0,0,0,0,0,0,0,0,0,0,0,0,0,0,0,0,0,0,0,0,0,0,0,0,0,0,0,0,0,0,0,0,0,0,0,0,0,0,0,0,0,0,0,0,0,0,0,0,0,0,0,0,0,0,0,0,0,0,0,0,0,3042,3044,0,0,0,0,0,0,0,0,0,0,0,0,0,0,0,0,0,0,0,0,0,0,0,0,0,0,0,0,0,0,0,0,0,0,0,0,0,0,3024,3010,3044,0,0,0,0,0,0,0,0,0,0,0,0,0,0,0,0,0,0,0,0,0,0,0,0,0,0,0,0,0,0,0,0,0,0,0,0,0,3024,3008,3032,0,0,0,0,0,0,0,0,0,0,0,0,0,0,0,0,0,0,0,0,0,0,0,0,0,0,0,0,0,0,0,0,0,0,0,0,0,3024,3008,3032,0,0,0,0,0,0,0,0,0,0,0,0,0,0,0,0,0,0,0,0,0,0,0,0,0,0,0,0,0,0,0,0,0,0,0,0,0,3024,3008,3032,0,0,0,0,0,0,0,0,0,0,0,0,0,0,0,0,0,0,0,0,0,0,0,0,0,0,0,0,0,0,0,0,0,0,0,0,0,3024,3008,3010,3044,0,0,0,0,0,0,0,0,0,0,0,0,0,0,0,0,0,0,0,0,0,0,0,0,0,0,0,0,0,0,0,0,0,0,0,0,3024,3008,3008,3032,0,0,0,0,0,0,0,0,0,0,0,0,0,0,0,0,0,0,0,0,0,0,0,0,0,0,0,0,0,0,0,0,0,0,0,0,3048,3036,3036,3046,0,0,0,0,0,0,0,0,0,0,0,0,0,0,0,0,0,0,0,0,0,0,0,0,0,0,0,0,0,0,0,0,0,0,0,0,0,0,0,0,0,0,0,0,0,0,0,0,0,0,0,0,0,0,0,0,0,0,0,0,0,0,0,0,0,0,0,0,0,0,0,0,0,0,0,0,0,0,0,0,0,0,0,0,0,0,0,0,0,0,0,0,0,0,0,0,0,0,0,0,0,0,0,0,0,0,0,0,0,0,0,0,0,0,0,0,0,0,0,0,0,0,0,0,0,0,0,0,0,0,0,0,0,0,0,0,0,0,0,0,0,0,0,0,0,0,0,0,0,0,0,0,0,0,0,0,0,0,0,0,0,0,0,0,0,0,0,0,0,0,0,0,0,0,0,0,0,0,0,0,0,0,0,0,0,0,0,0,0,0,0,0,0,0,0,0,0,0,0,0,0,0,0,0,0,0,0,0,0,0,0,0,0,0,0,0,0,0,0,0,0,0,0,0,0,0,0,0,0,0,0,0,0,0,0,0,0,0,0,0,0,0,0,0,0,0,0,0,0,0,0,0,0,0,0,0,0,0,0,0,0,0,0,0,0,0,0,0,0,0,0,0,0,0,0,0,0,0,0,0,0,0,0,0,0,0,0,0,0,0,0,0,0,0,0,0,0,0,0,0,0,0,0,0,0,0,0,0,0,0,0,0,0,0,0,0,0,0,0,0,0,0,0,0,0,0,0,0,0,0,0,0,0,0,0,0,0,0,0,0,0,0,0,0,0,0,0,0,0,0,0,0,0,0,0,0,0,0,0,0,0,0,0,0,0,0,0,0,0,0,0,0,0,0,0,0,0,0,0,0,0,0,0,409,0,0,0,0,0,0,0,0,0,0,0,0,0,0,0,0,0,0,0,0,0,0,0,0,0,0,0,0,0,0,425,0,0,0,0,0,0,0,0,0,0,0,0,0,0,0,0,0,0,0,0,0,0,0,0,0,0,0,0,0,0,0,0,0,0,0,0,425,0,0,0,0,0,425,0,0,0,0,0,0,425,0,0,0,0,0,0,0,0,0,0,0,0,0,0,0,0,0,0,0,0,0,0,0,0,0,0,0,0,0,0,0,0,0,0,0,0,0,0,0,0,0,0,0,0,0,0,0,0,0,0,0,0,0,0,0,0,0,0,0,0,0,0,0,0,0,0,56,0,0,0,0,0,56,0,0,0,0,0,0,0,0,0,0,0,0,0,0,0,0,0,0,0,0,0,0,0,0,0,0,0,0,0,0,0,0,0,0,0,0,0,0,0,0,0,0,0,0,0,0,0,0,0,0,0,0,0,0,0,0,0,0,0,0,0,0,0,0,0,0,0,0,0,0,0,0,0,0,0,0,0,0,0,0,0,0,0,0,0,0,0,0,0,0,0,0,0,0,0,0,0,0,0,0,0,0,0,0,0,0,0,0,0,0,0,0,0,0,0,0,0,0,0,0,0,0,0,0,0,0,0,0,0,0,0,0,0,0,0,0,0,0,0,0,0,0,0,0,0,0,0,0,0,0,0,0,0,96,0,0,0,0,0,0,0,0,0,0,0,0,101,0,0,0,0,0,0,0,0,0,0,0,0,0,0,0,0,0,0,0,0,0,0,0,0,0,0,0,0,0,0,0,0,0,0,0,0,0,0,0,101,0,0,0,0,0,421,0,0,0,0,0,0,121,0,0,0,0,0,0,425,0,0,0,0,0,0,0,0,0,0,0,0,0,0,0,0,0,0,0,101,0,0,0,0,0,0,430,0,101,0,0,0,0,0,0,0,0,0,0,0,0,0,0,0,0,0,0,0,0,0,0,0,0,0,0,0,0,0,0,0,0,0,0,0,0,0,0,0,101,0,0,0,0,0,0,0,0,0,0,0,0,0,0,0,0,0,0,0,0,0,0,0,0,0,0,0,0,0,0,0,0,0,0,0,0,0,0,0,0,0,0,0,0,0,0,0,0,0,0,0,0,0,0,0,0,0,0,0,0,0,0,0,0,0,0,0,0,0,0,0,0,0,0,0,0,0,0,0,0,0,0,0,89,0,0,0,0,0,0,0,0,0,0,0,0,0,0,0,0,0,0,0,0,0,0,0,0,0,0,0,0,0,0,0,0,0,0,0,0,0,0,0,0,0,0,0,0,56,0,0,0,56,0,0,0,0,0,0,0,0,0,0,0,0,0,0,0,0,0,0,0,0,0,0,0,0,0,0,0,0,0,0,0,0,0,0,0,0,0,0,0,0,0,0,0,0,0,0,0,0,0,0,0,0,0,0,0,0,0,0,0,0,0,0,0,0,0,0,0,0,0,0,0,0,0,0,0,0,0,0,0,0,0,0,0,0,0,0,0,0,0,0,0,0,0,0,0,0,0,0,0,0,0,0,0,0,0,0,0,0,0,0,0,0,0,0,0,0,0,0,0,0,0,0,0,0,0,0,0,0,0,0,0,0,0,0,0,0,0,0,0,0,0,0,0,0,0,0,0,0,0,0,0,0,0,0,0,0,0,0,0,0,0,0,0,0,0,0,0,0,0,0,0,0,0,0,0,0,0,0,0,0,0,0,0,0,0,0,0,0,0,0,0,0,0,0,0,0,0,0,0,0,0,0,0,0,0,0,0,0,0,0,0,0,0,0,0,0,0,0,0,384,0,0,0,0,0,0,0,0,0,0,0,0,0,0,0,0,0,0,0,0,0,0,0,0,0,0,0,0,0,0,0,0,0,0,0,0,0,0,0,0,0,402,0,0,0,0,0,0,0,0,0,0,0,0,384,384,384,0,0,0,0,0,0,0,0,0,0,0,0,0,0,0,0,0,0,0,0,0,0,0,0,0,0,0,0,0,0,0,0,0,0,0,0,0,393,0,0,0,0,0,0,0,0,0,0,0,0,0,0,0,0,0,0,0,0,0,0,0,0,0,0,0,0,0,0,0,0,0,0,0,0,0,0,0,0,0,400,0,401,0,0,401,0,0,0,0,0,0,0,0,0,0,0,0,0,0,0,0,0,0,402,0,0,0,0,0,0,0,0,0,0,0,0,0,0,0,0,0,0,0,0,0,0,0,0,0,0,0,0,0,0,0,0,0,0,0,0,0,0,0,0,393,0,0,0,0,0,0,0,0,121,0,0,0,401,0,0,0,0,0,0,0,401,0,0,0,0,0,0,0,0,0,0,0,0,401,0,0,0,0,0,393,393,393,393,0,0,0,0,0,0,0,0,0,0,0,0,0,0,0,0,0,55,0,0,0,0,0,0,0,0,0,0,0,0,0,0,0,0,0,0,393,0,0,0,0,0,0,0,0,0,0,0,0,56,0,0,0,0,0,0,0,56,0,0,0,0,0,0,0,0,0,0,0,0,0,0,0,0,0,0,393,0,0,0,0,0,0,0,0,0,0,0,0,0,0,0,0,0,0,0,0,0,0,0,0,0,0,0,0,0,0,0,0,0,0,0,0,0,0,0,401,0,0,0,394,0,0,0,0,0,0,0,0,0,0,0,0,0,0,0,0,0,0,0,0,0,0,0,0,0,0,0,0,0,0,0,0,0,0,0,0,0,0,0,0,0,0,0,0,0,0,0,0,0,0,0,0,0,0,0,0,0,0,0,0,0,0,0,0,0,0,0,0,0,0,0,0,0,0,0,0,0,0,0,0,0,0,0,0,0,0,0,0,0,0,0,0,0,0,0,0,0,0,0,0,0,0,0,0,0,0,0,0,0,0,0,0,0,0,0,0,0,0,0,0,0,0,0,0,0,0,0,0,0,0,0,0,0,0,0,0,0,0,0,0,0,0,0,0,0,0,0,0,0,0,0,0,0,0,0,0,0,0,0,0,0,0,0,0,0,0,0,0,0,0,0,0,0,0,0,0,0,0,0,0,0,0,0,0,0,0,0,0,0,0,0,0,0,0,0,0,0,0,0,0,0,0,0,0,0,0,0,0,0,0,0,0,0,0,0,0,0,0,0,0,0,0,0,0,0,0,0,0,0,0,0,0,0,0,0,0,0,0,0,0,0,0,0,0,0,0,0,0,0,0,0,0,0,0,0,0,0,0,0,0,0,0,0,0,0,0,0,0,0,0,0,0,0,0,0,0,0,0,0,0,0,0,0,0,0,0,0,0,0,0,0,0,0,0,0,0,0,0,0,0,0,0,0,0,0,0,0,0,0,0,0,0,0,0,0,0,0,0,0,0,0,0,0,0,0,0,0,0,0,0,0,0,0,0,0,0,0,0,0,0,0,0,0,0,0,0,0,0,0,0,0,0,0,0,0,0,0,0,0,0,0,0,0,0,0,0,0,0,0,0,0,0,0,0,0,116,116,408,409,409,409,409,409,409,409,410,0,0,0,0,0,0,0,0,0,0,0,0,0,0,0,0,0,0,0,0,0,0,0,0,0,0,0,0,0,124,124,416,417,417,417,417,417,417,417,418,0,91,0,408,64,409,409,410,0,0,0,0,0,0,0,0,0,93,0,0,0,0,0,64,0,0,0,0,0,0,0,416,417,428,425,442,425,427,417,418,0,0,0,416,417,417,417,418,88,0,0,0,0,0,0,0,0,101,0,0,89,77,0,0,0,0,0,0,0,0,0,424,442,426,0,0,0,424,442,426,0,0,0,424,425,442,425,426,77,0,0,0,0,0,0,0,0,0,0,0,0,82,0,48,0,0,0,0,0,112,113,0,48,0,0,68,0,0,48,0,112,113,0,0,54,0,54,0,77,0,0,0,0,0,0,0,0,0,0,0,0,0,0,56,0,0,68,0,0,120,121,0,49,0,0,76,0,0,49,0,120,121,0,0,62,68,62,0,0,0,93,93,0,0,0,0,0,0,48,48,0,0,0,0,0,0,0,0,0,0,0,0,0,0,0,0,0,0,0,0,0,0,0,0,0,0,0,0,0,91,101,101,90,0,0,0,0,0,56,56,0,0,0,0,0,0,0,0,0,0,0,0,0,211,0,0,0,211,0,0,0,0,0,0,0,0,0,0,0,0,0,91,0,0,88,0,0,0,0,0,0,0,0,0,0,0,0,0,0,0,0,0,0,219,0,0,0,219,0,0,0,0,0,0,0,93,93,93,413,414,414,414,414,415,0,0,0,0,0,0,0,0,0,408,409,409,409,410,0,0,91,0,99,227,0,0,0,227,99,0,0,0,0,0,0,93,101,101,421,422,422,422,422,423,0,0,0,112,113,89,0,0,0,416,417,417,417,418,0,0,0,0,0,0,0,0,0,0,0,0,0,0,0,0,0,93,0,0,429,430,430,444,422,423,93,0,0,120,112,113,0,0,408,424,425,442,425,426,410,0,0,0,0,93,0,0,0,93,0,0,0,0,75,0,0,93,0,0,0,55,0,429,443,431,93,0,0,0,120,121,0,93,416,0,51,51,51,0,418,93,0,0,0,101,0,0,0,101,0,91,0,0,0,0,0,101,0,0,0,63,0,0,0,0,93,0,0,0,0,89,0,101,416,0,59,59,59,0,418,101,0,0,0,211,0,0,0,211,0,0,0,0,0,0,0,0,0,0,77,106,125,0,68,0,101,0,0,0,112,113,0,117,424,425,425,425,425,425,426,77,0,0,0,219,0,0,0,219,0,0,0,0,0,0,0,0,0,0,0,0,0,0,0,0,0,0,0,0,120,121,0,0,0,48,0,0,0,48,0,77,0,96,0,227,0,0,0,227,0,96,0,0,0,64,0,77,0,0,0,195,0,0,0,0,0,0,0,0,0,0,0,99,93,57,0,68,0,57,93,99,0,93,0,0,0,0,0,0,0,93,0,0,0,0,0,77,0,0,203,0,0,0,0,0,192,0,0,0,112,113,0,0,101,0,0,76,0,0,101,90,0,101,0,0,0,0,0,0,0,101,0,48,0,48,0,112,113,98,99,97,0,0,0,0,200,0,0,0,120,121,0,0,0,0,0,76,0,0,0,0,0,0,0,0,0,336,0,0,0,0,0,56,68,56,0,120,121,0,0,0,0,0,0,0,0,0,0,0,0,0,0,90,0,0,0,0,0,0,0,0,0,0,0,0,0,344,0,0,0,0,0,0,0,0,0,0,0,0,0,0,91,0,0,0,0,0,0,0,91,0,0,0,0,0,0,0,0,0,0,0,0,0,0,0,0,0,0,0,0,0,0,0,0,0,0,0,0,384,385,385,385,385,386,112,113,0,0,0,0,0,0,0,0,0,0,0,0,0,0,0,0,0,0,0,0,0,0,0,0,0,0,0,0,112,113,0,0,392,393,393,393,393,394,120,121,0,0,0,0,90,0,0,0,112,113,0,0,0,0,0,0,0,0,0,0,0,0,0,0,112,113,0,0,120,121,0,384,400,401,401,395,393,394,386,0,0,0,90,0,0,0,384,388,388,388,385,385,385,385,385,385,386,0,211,0,0,0,211,0,120,121,0,0,0,0,0,392,0,48,0,392,393,394,394,0,0,0,0,0,0,0,392,64,393,393,393,393,393,393,393,393,394,0,219,0,0,0,219,0,0,0,0,0,0,0,0,392,0,56,0,392,393,394,394,0,0,0,0,91,0,90,392,393,396,401,401,434,401,401,395,393,394,0,227,0,0,0,227,0,0,0,0,384,385,386,0,400,401,401,395,392,393,394,394,0,0,0,112,113,0,0,392,393,394,0,48,0,48,0,392,393,394,0,0,0,0,0,0,0,0,0,0,392,393,394,0,0,42,0,392,392,393,394,394,0,0,0,120,112,113,116,400,434,402,93,56,68,56,93,400,434,402,0,0,0,0,0,0,0,0,0,0,400,434,402,0,0,68,93,392,400,401,402,394,0,0,0,0,120,121,124,0,48,0,101,0,0,0,101,0,48,0,77,0,0,0,0,0,0,0,0,0,0,34,0,0,0,76,101,392,0,48,0,394,0,0,0,112,113,0,0,0,49,0,0,0,0,0,0,0,49,0,77,0,0,0,0,0,0,68,0,0,0,68,0,117,0,0,0,392,0,56,0,394,0,0,0,120,121,91,0,0,0,0,0,0,0,0,0,0,0,0,0,0,0,0,0,0,0,0,0,0,0,0,0,0,0,0,0,400,401,401,401,402,0,0,0,0,91,112,113,0,0,0,0,0,0,0,0,0,0,0,0,0,0,0,0,0,0,0,0,0,0,0,0,0,0,0,93,0,48,0,48,0,93,0,0,0,0,120,121,0,0,0,0,0,0,0,0,0,0,0,211,0,0,0,0,0,211,0,0,0,0,0,0,0,0,0,101,0,56,0,56,0,101,0,0,0,0,0,0,0,0,0,0,0,0,0,0,0,0,0,219,0,0,0,0,0,219,0,0,0,0,0,0,0,0,0,0,0,0,0,0,0,0,0,0,0,0,0,0,0,0,0,0,0,0,0,0,0,0,0,227,0,0,0,0,0,227,0,0,0,0,0,0,0,0,0,0,0,0,0,0,0,0,0,0,0,0,0,0,0,0,0,0,0,0,0,0,0,0,0,0,0,0,0,0,0,0,0,0,0,0,0,0,0,0,0,0,0,0,0,0,0,0,0,0,0,0,0,0,0,0,0,0,0,0,0,0,0,0,0,0,0,0,0,0,0,0,0,0,0,0,0,0,0,0,0,0,0,0,0,0,0,0,0,0,0,0,0,0,0,0,0,0,0,0,0,0,0,0,0,0,0,0,0,0,0,0,0,0,0,0,0,0,0,0,0,0,0,0,0,0,0,0,0,0,0,0,0,0,0,0,0,0,0,0,0,0,0,0,0,0,0,0,0,0,0,0,0,0,0,0,0,0,0,0,0,0,0,0,0,0,0,0,0,0,0,0,0,0,0,0,0,0,0,0,0,0,0,0,0,0,0,0,0,0,0,0,0,0,0,0,0,0,0,0,0,0,0,0,0,0,0,0,0,0,0,0,0,0,0,0,0,0,0,0,0,0,0,0,0,0,0,0,0,0,0,0,0,0,0,0,0,0,0,0,0,0,0,0,0,0,0,0,0,0,5,0,0,0,0,0,0,0,0,0,0,0,0,0,0,0,0,0,0,0,0,0,0,4,0,0,0,0,0,0,0,0,0,0,0,0,0,0,0,0,5,0,0,0,0,0,0,0,0,0,0,0,0,0,0,0,0,0,0,0,0,0,0,5,0,0,0,0,0,0,0,4,0,0,0,0,0,0,0,0,5,0,0,0,0,0,0,0,0,0,0,5,0,0,0,0,0,0,0,0,0,0,0,5,0,0,0,0,0,0,0,5,0,0,0,0,0,0,0,0,5,0,0,0,0,0,0,0,0,0,0,5,0,0,0,0,0,0,0,0,0,0,0,5,0,0,0,0,0,0,0,5,0,0,0,0,0,0,0,0,5,0,0,0,5,0,0,0,0,0,0,5,0,0,0,0,0,5,0,0,0,0,0,5,0,0,0,0,0,0,0,5,0,0,0,0,0,0,0,0,5,0,0,0,5,0,0,0,0,0,0,0,0,0,0,0,0,0,0,0,0,0,0,0,0,0,0,0,0,0,0,0,0,0,0,0,0,0,0,0,5,0,0,0,5,0,0,0,0,0,0,0,0,0,0,0,0,0,0,0,0,0,0,0,0,0,0,0,0,0,0,0,0,0,0,0,0,0,0,0,5,0,0,0,0,0,0,0,0,0,0,0,0,0,0,0,0,0,0,0,0,0,0,0,0,0,0,0,0,0,0,0,0,0,0,0,0,0,0,0,5,0,0,0,0,0,0,0,0,0,0,0,0,0,0,0,0,0,0,0,0,0,0,0,0,0,0,0,0,0,0,0,0,0,0,0,0,0,0,0,5,0,0,0,0,0,0,0,0,0,0,0,0,0,0,0,0,0,0,0,0,0,0,0,0,0,0,0,0,0,0,0,0,0,0,0,0,4,0,0,5,0,0,0,0,0,0,0,0,0,0,0,0,0,0,0,0,0,0,0,0,0,0,0,0,0,0,0,0,0,0,0,0,0,0,0,0,5,0,0,5,0,0,0,0,0,0,0,0,0,0,0,0,0,0,0,0,0,0,0,0,0,0,0,0,0,0,0,0,0,0,0,0,0,0,0,0,5,0,0,5,0,0,0,0,0,0,0,0,0,0,5,5,0,0,0,0,0,0,0,0,0,0,0,0,0,0,0,0,0,0,0,0,0,0,0,0,5,0,0,5,0,0,0,0,0,0,0,0,0,0,0,5,0,0,0,0,0,0,0,0,0,0,0,0,0,0,0,0,0,0,0,0,0,0,0,0,0,0,0,5,0,0,0,0,0,0,0,0,0,0,0,5,0,0,0,0,0,0,0,0,0,0,0,0,0,0,0,5,0,0,0,0,0,0,0,0,0,0,0,5,0,0,0,0,0,0,0,0,0,0,0,5,0,0,0,0,0,0,0,0,0,0,0,0,0,0,0,5,0,0,0,0,0,0,0,0,0,0,0,5,0,0,0,0,0,0,0,0,0,0,0,0,0,0,0,0,0,0,0,0,0,0,0,0,0,0,0,5,0,0,0,0,0,0,0,0,0,0,0,5,0,0,0,0,0,0,0,0,0,0,0,0,0,0,0,0,0,0,0,0,0,0,0,0,0,0,0,5,0,0,0,0,0,0,0,0,0,0,0,5,0,0,0,0,0,0,0,0,0,0,0,0,0,0,0,0,0,0,0,0,0,0,0,0,0,0,0,0,0,0,0,0,0,0,0,0,0,0,0,5,0,0,0,0,0,0,0,0,0,0,0,0,0,0,0,0,0,0,5,0,0,0,0,0,0,0,0,0,0,0,0,0,0,0,0,0,0,0,0,5,0,0,0,0,0,0,0,0,0,0,0,0,0,0,0,0,0,0,0,0,0,0,0,0,0,0,0,0,0,0,0,0,0,0,0,0,0,0,0,5,0,0,0,0,0,0,0,0,0,0,0,0,0,0,0,0,0,0,0,0,0,0,0,0,0,0,0,0,0,0,0,0,0,0,0,0,0,0,0,5,0,0,0,0,0,0,0,0,0,0,0,0,0,0,0,0,0,0,0,0,0,0,0,0,0,0,0,0,0,0,0,0,0,0,0,0,4,0,0,5,0,0,0,0,0,0,0,0,0,0,0,0,0,0,4,0,0,0,0,0,0,0,0,0,0,0,0,0,0,0,0,0,5,0,0,0,5,0,0,5,0,0,0,0,0,0,0,0,0,0,0,0,0,0,5,0,0,0,0,0,0,0,0,0,0,0,0,0,0,0,0,0,0,0,0,0,5,0,0,5,0,0,0,0,0,0,0,0,0,0,0,0,0,0,5,0,0,0,0,0,0,0,0,0,0,0,0,5,0,0,0,0,0,0,0,0,5,0,0,5,0,0,0,0,0,0,0,0,0,0,0,5,0,0,5,0,0,0,0,0,0,0,0,5,0,0,0,5,0,0,0,5,0,0,0,0,5,0,0,5,0,0,0,0,0,0,5,0,0,0,0,0,0,0,5,0,0,0,0,0,0,0,0,5,0,0,0,5,0,0,0,0,0,0,0,0,5,0,0,5,0,0,0,0,0,0,5,0,0,0,0,0,0,0,5,0,0,0,0,0,0,0,0,5,0,0,0,5,0,0,0,0,0,0,0,5,5,0,0,5,0,0,0,0,0,0,0,0,0,0,0,0,0,0,0,0,0,0,0,0,0,0,0,0,0,0,0,0,0,0,0,0,0,0,0,0,5,0,0,5,0,0,0,0,0,0,0,0,0,0,0,0,0,0,0,0,0,0,0,0,0,0,0,0,0,0,0,0,0,0,0,0,0,0,0,0,5,0,0,5,0,0,0,0,0,0,0,0,0,0,0,0,0,0,0,0,0,0,0,0,0,0,0,0,0,0,0,0,0,0,0,0,0,0,0,0,5,0,0,5,0,0,0,0,0,0,0,0,0,0,0,0,0,0,0,0,0,0,0,0,0,0,0,0,0,0,0,0,0,0,0,0,0,0,0,0,0,0,0,5,0,0,0,0,0,0,0,0,0,0,0,0,0,0,0,0,0,0,0,0,0,0,0,0,0,0,0,0,0,0,0,0,0,0,0,0,0,0,0,5,0,0,0,0,0,0,0,0,0,0,0,0,0,0,0,0,0,0,0,0,0,0,0,0,0,0,0,0,0,0,0,0,0,0,0,0,0,0,0,0,0,0,0,0,0,0,0,0,0,0,0,0,0,0,0,0,0,0,0,0,0,0,0,0,0,0,0,0,0,0,0,0,0,0,0,0,0,0,0,0,0,0,0,0,0,0,0,0,0,0,0,0,0,0,0,0,5,0,0,0,0,0,0,0,0,0,0,0,0,0,0,0,0,0,0,0,0,0,0,0,0,0,0,0,0,0,0,0,0,0,0,0,0,0,0,0,0,0,0,0,0,0,0,0,0,0,0,0,0,0,0,0,0,0,0,0,0,0,0,0,0,0,0,0,0,0,0,0,0,0,0,0,0,0,0,0,0,0,0,0,0,0,0,0,0,0,0,0,0,0,0,0,0,0,0,0,0,0,0,0,0,0,0,0,0,0,0,0,0,0,0,0,0,0,0,0,0,0,0,0,0,0,0,0,0,0,0,0,0,0,0,0,0,0,0,0,0,0,0,0,0,0,0,0,0,0,0,0,0,0,0,0,0,0,0,0,0,0,0,0,0,0,0,0,0,0,0,0,0,0,0,0,0,0,0,0,0,0,0,0,0,0,0,0,0,0,0,0,0,0,0,0,0,0,0,0,0,0,0,0,0,0,0,0,0,0,0,0,0,0,0,0,0,0,0,0,0,0,0,0,0,0,0,0,0,0,0,0,0,0,0,0,0,0,0,0,0,0,0,0,0,0,0,0,0,0,0,0,0,0,0,0,0,0,0,0,0,0,0,0,0,0,0,0,0,0,0,0,0,0,0,0,0,0,0,0,0,0,0,0,0,0,0,0,0,0,0,0,0,0,0,0,0,0,0,0,0,0,0,0,0,0,0,0,0,0,0,0,0,0,0,0,0,0,0,0,0,0,0,0,0,0,0,0,0,0,0,0,0,0,0,0,0,0,0,0,0,0,0,0,0,0,0,0,0,0,0,0,0,0,0,0,0,0,0,0,0,0,0,0,0,0,0,0,0,0,0,0,0,0,0,0,0,0,0,0,0,0,0,0,0,0,0,0,0,0,0,0,0,0,0,0,0,0,0,0,0,0,0,0,0,0,0,0,0,0,0,0,0,0,0,0,0,0,0,0,0,0,0,0,0,0,0,0,0,0,0,0,0,0,0,0,0,0,0,0,0,0,0,0,0,0,0,0,0,0,0,0,0,0,0,0,0,0,0,0,0,0,0,0,0,0,0,0,0,0,0,0,0,0,0,0,0,0,0,0,0,0,0,0,0,0,0,0,0,0,0,0,0,0,0,0,0,0,0,0,0,0,0,0,0,0,0,0,0,0,0,0,0,0,0,0,0,0,0,0,0,0,0,0,0,0,0,0,0,0,0,0,0,0,0,0,0,0,0,0,0,0,0,0,0,0,0,0,0,0,0,0,0,0,0,0,0,0,0,0,0,0,0,0,0,0,0,0,0,0,0,0,0,0,0,0,0,0,0,0,0,0,0,0,0,0,0,0,0,0,0,0,0,0,0,0,0,0,0,0,0,0,0,0,0,0,0,0,0,0,0,0,0,0,0,0,0,0,0,0,0,0,0,0,0,0,0,0,0,0,0,0,0,0,0,0,0,0,0,0,0,0,0,0,0,0,0,0,0,0,0,0,0,0,0,0,0,0,0,0,0,0,0,0,0,0,0,0,0,0,0,0,0,0,0,0,0,0,0,0,0,0,0,0,0,0,0,0,0,0,0,0,0,0,0,0,0,0,0,0,0,0,0,0,0,0,0,0,0,0,0,0,0,0,0,0,0,0,0,0,0,0,0,0,0,0,0,0,0,0,0,0,0,0,0,0,0,0,0,0,0,0,0,0,0,0,0,0,0,0,0,0,0,0,0,0,0,0,0,0,0,0,0,0,0,0,0,0,0,0,0,0,0,0,0,0,0,0,0,0,0,0,0,0,0,0,0,0,0,0,0,0,0,0,0,0,0,0,0,0,0,0,0,0,0,0,0,0,0,0,0,0,0,0,0,0,0,0,0,0,0,0,0,0,0,0,0,0,0,0,0,0,0,0,0,0,0,0,0,0,0,0,0,0,0,0,0,0,0,0,0,0,0,0,0,0,0,0,0,0,0,0,0,0,0,0,0,0,0,0,0,0,0,0,0,0,0,0,0,0,0,0,0,0,0,0,0,0,0,0,0,0,0,0,0,0,0,0,0,0,0,0,0,0,0,0,0,0,0,0,0,0,0,0,0,0,0,0,0,0,0,0,0,0,0,0,0,0,0,0,0,0,0,0,0,0,0,0,0,0,0,0,0,0,0,0,0,0,0,0,0,0,0,0,0,0,0,0,0,0,0,0,0,0,0,0,0,0,0,0,0,0,0,0,0,0,0,0,0,0,0,0,0,0,0,0,0,0,0,0,0,0,0,0,0,0,0,0,0,0,0,0,0,0,0,0,0,0,0,0,0,0,0,0,0,0,0,0,0,0,0,0,0,0,0,0,0,0,0,0,0,0,0,0,0,0,0,0,0,0,0,0,0,0,0,0,0,0,0,0,0,0,0,0,0,0,0,0,0,0,0,0,0,0,0,0,0,0,0,0,0,0,0,0,0,0,0,0,0,0,0,0,0,0,0,0,0,0,0,0,0,0,0,0,0,0,0,0,0,0,0,0,0,0,0,0,0,0,0,0,0,0,0,0,0,0,0,0,0,0,0,0,0,0,0,0,0,0,0,0,0,0,0,0,0,0,0,0,0,0,0,0,0,0,0,0,0,0,0,0,0,0,0,0,0,0,0,0,0,0,0,0,0,0,0,0,0,0,0,0,0,0,0,0,0,0,0,0,0,0,0,0,0,0,0,0,0,0,0,0,0,0,0,0,0,0,0,0,0,0,0,0,0,0,0,0,0,0,0,0,0,0,0,0,0,0,0,0,0,0,0,0,0,0,0,0,0,0,0,0,0,0,0,0,0,0,0,0,0,0,0,0,0,0,0,0,0,0,0,0,0,0,0,0,0,0,0,0,0,0,0,0,0,0,0,0,0,0,0,0,0,0,0,0,0,0,0,0,0,0,0,0,0,0,0,0,0,0,0,0,0,0,0,0,0,0,0,0,0,0,0,0,0,0,0,0,0,0,0,0,0,0,0,0,0,0,0,0,0,0,0,0,0,0,0,0,0,0,0,0,0,0,0,0,0,0,0,0,0,0,0,0,0,0,0,0,0,0,0,0,0,0,0,0,0,0,0,0,0,0,0,0,0,0,0,0,0,0,0,0,0,0,0,0,0,0,0,0,0,0,0,0,0,0,0,0,0,0,0,0,0,0,0,0,0,0,0,0,0,0,0,0,0,0,0,0,0,0,0,0,0,0,0,0,0,0,0,0,0,0,0,0,0,0,0,0,0,0,0,0,0,0,0,0,0,0,0,0,0,0,0,0,0,0,0,0,0,0,0,0,0,0,0,0,0,0,0,0,0,0,0,0,0,0,0,0,0,0,0,0,0,0,0,0,0,0,0,0,0,0,0,0,0,0,0,0,0,0,0,0,0,0,0,0,0,0,0,0,0,0,0,0,0,0,0,0,0,0,0,0,0,0,0,0,0,0,0,0,0,0,0,0,0,0,0,0,0,0,0,0,0,0,0,0,0,0,0,0,0,0,0,0,0,0,0,0,0,0,0,0,0,0,0,0,0,0,0,0,0,0,0,0,0,0,0,0,0,0,0,0,0,0,0,0,0,0,0,0,0,0,0,0,0,0,0,0,0,0,0,0,0,0,0,0,0,0,0,0,0,0,0,0,0,0,0,0,0,0,0,0,0,0,0,0,0,0,0,0,0,0,0,0],
"events":[
null,
{"id":1,"name":"EV001","note":"","pages":[{"conditions":{"actorId":1,"actorValid":false,"itemId":1,"itemValid":false,"selfSwitchCh":"A","selfSwitchValid":false,"switch1Id":1,"switch1Valid":false,"switch2Id":1,"switch2Valid":false,"variableId":1,"variableValid":false,"variableValue":0},"directionFix":false,"image":{"characterIndex":0,"characterName":"","direction":2,"pattern":0,"tileId":0},"list":[{"code":250,"indent":0,"parameters":[{"name":"Move1","pan":0,"pitch":100,"volume":90}]},{"code":201,"indent":0,"parameters":[0,1,10,6,0,0]},{"code":0,"indent":0,"parameters":[]}],"moveFrequency":3,"moveRoute":{"list":[{"code":0,"parameters":[]}],"repeat":true,"skippable":false,"wait":false},"moveSpeed":3,"moveType":0,"priorityType":0,"stepAnime":false,"through":false,"trigger":1,"walkAnime":true}],"x":19,"y":38},
{"id":2,"name":"EV002","note":"","pages":[{"conditions":{"actorId":1,"actorValid":false,"itemId":1,"itemValid":false,"selfSwitchCh":"A","selfSwitchValid":false,"switch1Id":1,"switch1Valid":false,"switch2Id":1,"switch2Valid":false,"variableId":1,"variableValid":false,"variableValue":0},"directionFix":false,"image":{"characterIndex":0,"characterName":"","direction":2,"pattern":0,"tileId":0},"list":[{"code":250,"indent":0,"parameters":[{"name":"Move1","pan":0,"pitch":100,"volume":90}]},{"code":201,"indent":0,"parameters":[0,2,19,39,0,0]},{"code":0,"indent":0,"parameters":[]}],"moveFrequency":3,"moveRoute":{"list":[{"code":0,"parameters":[]}],"repeat":true,"skippable":false,"wait":false},"moveSpeed":3,"moveType":0,"priorityType":0,"stepAnime":false,"through":false,"trigger":1,"walkAnime":true}],"x":19,"y":37},
{"id":3,"name":"EV003","note":"","pages":[{"conditions":{"actorId":1,"actorValid":false,"itemId":1,"itemValid":false,"selfSwitchCh":"A","selfSwitchValid":false,"switch1Id":1,"switch1Valid":false,"switch2Id":1,"switch2Valid":false,"variableId":1,"variableValid":false,"variableValue":0},"directionFix":false,"image":{"characterIndex":0,"characterName":"","direction":2,"pattern":0,"tileId":0},"list":[{"code":250,"indent":0,"parameters":[{"name":"Move1","pan":0,"pitch":100,"volume":90}]},{"code":201,"indent":0,"parameters":[0,2,19,39,0,0]},{"code":0,"indent":0,"parameters":[]}],"moveFrequency":3,"moveRoute":{"list":[{"code":0,"parameters":[]}],"repeat":true,"skippable":false,"wait":false},"moveSpeed":3,"moveType":0,"priorityType":0,"stepAnime":false,"through":false,"trigger":1,"walkAnime":true}],"x":18,"y":38},
{"id":4,"name":"EV004","note":"","pages":[{"conditions":{"actorId":1,"actorValid":false,"itemId":1,"itemValid":false,"selfSwitchCh":"A","selfSwitchValid":false,"switch1Id":1,"switch1Valid":false,"switch2Id":1,"switch2Valid":false,"variableId":1,"variableValid":false,"variableValue":0},"directionFix":false,"image":{"characterIndex":0,"characterName":"","direction":2,"pattern":0,"tileId":0},"list":[{"code":250,"indent":0,"parameters":[{"name":"Move1","pan":0,"pitch":100,"volume":90}]},{"code":201,"indent":0,"parameters":[0,2,19,39,0,0]},{"code":0,"indent":0,"parameters":[]}],"moveFrequency":3,"moveRoute":{"list":[{"code":0,"parameters":[]}],"repeat":true,"skippable":false,"wait":false},"moveSpeed":3,"moveType":0,"priorityType":0,"stepAnime":false,"through":false,"trigger":1,"walkAnime":true}],"x":20,"y":38}
]
}